# Blender MTL File: 'Laptop.blend'
# Material Count: 8

newmtl Material.001
Ns 440.999985
Ka 0.600000 0.600000 0.600000
Kd 0.000000 0.000000 0.000000
Ks 0.500000 0.500000 0.500000
Ke 0.000000 0.000000 0.000000
Ni 1.450000
d 1.000000
illum 3

newmtl Material.005
Ns 225.000000
Ka 1.000000 1.000000 1.000000
Kd 0.000000 0.000000 0.000000
Ks 0.500000 0.500000 0.500000
Ke 0.000000 0.000000 0.000000
Ni 1.450000
d 1.000000
illum 2
map_Bump -bm 10.000000 C:\\Users\\Updeshh\\Desktop\\Attharv\\image.png
map_Ns C:\\Users\\Updeshh\\Desktop\\Attharv\\image.png
refl C:\\Users\\Updeshh\\Desktop\\Attharv\\image.png

newmtl Material.006
Ns 225.000000
Ka 1.000000 1.000000 1.000000
Kd 0.000000 0.000000 0.000000
Ks 0.500000 0.500000 0.500000
Ke 1.000000 1.000000 1.000000
Ni 1.450000
d 1.000000
illum 2

newmtl Material.007
Ns 575.999996
Ka 0.400000 0.400000 0.400000
Kd 0.023651 0.023651 0.023651
Ks 0.500000 0.500000 0.500000
Ke 0.000000 0.000000 0.000000
Ni 1.450000
d 1.000000
illum 3

newmtl Material.008
Ns 225.000000
Ka 1.000000 1.000000 1.000000
Kd 0.800000 0.800000 0.800000
Ks 0.500000 0.500000 0.500000
Ke 1.000000 1.000000 1.000000
Ni 1.450000
d 1.000000
illum 2

newmtl Material.010
Ns 225.000000
Ka 1.000000 1.000000 1.000000
Kd 0.000000 0.000000 0.000000
Ks 0.500000 0.500000 0.500000
Ke 0.000000 0.000000 0.000000
Ni 1.450000
d 1.000000
illum 2
map_Ke C:\\Users\\Updeshh\\Desktop\\Attharv\\windows10desktophero.jpg

newmtl Material.011
Ns 900.000000
Ka 0.500000 0.500000 0.500000
Kd 1.000000 1.000000 1.000000
Ks 0.500000 0.500000 0.500000
Ke 0.000000 0.000000 0.000000
Ni 1.450000
d 1.000000
illum 3

newmtl None
Ns 500
Ka 0.8 0.8 0.8
Kd 0.8 0.8 0.8
Ks 0.8 0.8 0.8
d 1
illum 2
